{
  "statistics": {
    "review_count": 124,
    "question_count": 0,
    "recommended_count": 10,
    "not_recommended_count": 1,
    "recommended_percentage": 90,
    "reviews_with_images_count": 11,
    "rating": {
      "distribution": {
        "1": 5,
        "2": 5,
        "3": 21,
        "4": 29,
        "5": 294
      },
      "average": 4.7,
      "positive_percentage": 97,
      "count": 354,
      "secondary_averages": [
        {
          "id": "Taste",
          "value": 4.91,
          "label": "taste",
          "type": "RATING",
          "range": 5
        },
        {
          "id": "Quality",
          "value": 5.0,
          "label": "quality",
          "type": "RATING",
          "range": 5
        },
        {
          "id": "Value",
          "value": 4.5,
          "label": "value",
          "type": "RATING",
          "range": 5
        }
      ]
    },
    "calculated_at": "2023-07-17T20:00:05.113Z"
  },
  "reviews": {
    "page": 1,
    "size": 8,
    "total_results": 124,
    "results": [
      {
        "id": "1a56c516-0342-4745-be32-fb07e5a4095a",
        "external_id": "2b42a38c-9ad4-5610-9ea3-da9c710aba7a",
        "is_syndicated": true,
        "channel": "BV",
        "author": {
          "external_id": "51e92181-3daf-55c6-8199-96a63d2485c9",
          "nickname": "mahfuzav"
        },
        "title": "Red Bull",
        "text": "Actually I’m coffee lover ☕️ But when I studied I always needed to sleep. At that time I used to drink Red Bull instead of coffee. But I m not a big fun of Red Bull , cause I felt that I gained weight. That’s why I stopped to drink it.",
        "is_verified": false,
        "feedback": {
          "helpful": 0,
          "unhelpful": 0,
          "inappropriate": 0
        },
        "status": "APPROVED",
        "submitted_at": "2023-05-12T18:38:26.000+00:00",
        "modified_at": "2023-05-14T08:03:10.000+00:00",
        "photos": [],
        "tags": [],
        "reviewer_attributes": [],
        "ClientResponses": [],
        "Entities": [],
        "Tcin": "13426757",
        "Rating": 3,
        "RatingRange": 5,
        "SecondaryRatingsOrder": [],
        "SecondaryRatings": {},
        "BadgesOrder": [],
        "Badges": {},
        "SourceClient": "influenster.com",
        "SyndicationSource": {
          "id": "influenster",
          "logo": "https://contentorigin.bazaarvoice.com/influenster/default/influenster.png",
          "name": "influenster.com"
        },
        "IsRatingsOnly": false,
        "ClientResponseCount": 0
      },
      {
        "id": "55265ee5-9c2b-4458-93e2-2b246b4d0b7b",
        "external_id": "078ddadb-bece-5b4e-81a5-cb437456cba5",
        "is_syndicated": true,
        "channel": "BV",
        "author": {
          "external_id": "1326f391-5493-5ccb-ba9d-9ac07174cd14",
          "nickname": "cherrys16"
        },
        "title": "\uD83D\uDE0D",
        "text": "Need a pick me up to get things done? Redbull! My go to energy drink when I need a little boost to get me through my day of house chores and a toddler..",
        "is_verified": false,
        "feedback": {
          "helpful": 0,
          "unhelpful": 0,
          "inappropriate": 0
        },
        "status": "APPROVED",
        "submitted_at": "2023-05-09T13:40:58.000+00:00",
        "modified_at": "2023-05-11T08:03:17.000+00:00",
        "photos": [],
        "tags": [],
        "reviewer_attributes": [],
        "ClientResponses": [],
        "Entities": [],
        "Tcin": "13426757",
        "Rating": 5,
        "RatingRange": 5,
        "SecondaryRatingsOrder": [],
        "SecondaryRatings": {},
        "BadgesOrder": [],
        "Badges": {},
        "SourceClient": "influenster.com",
        "SyndicationSource": {
          "id": "influenster",
          "logo": "https://contentorigin.bazaarvoice.com/influenster/default/influenster.png",
          "name": "influenster.com"
        },
        "IsRatingsOnly": false,
        "ClientResponseCount": 0
      },
      {
        "id": "3dab9b88-9962-48f7-b7b7-bb79baecfec2",
        "external_id": "1399d851-766e-5f82-a417-5bb6c289eb58",
        "is_syndicated": true,
        "channel": "BV",
        "author": {
          "external_id": "7817280e-3bdc-5dab-bff3-8c52671e3b73",
          "nickname": "willar5"
        },
        "title": "mid",
        "text": "Overall mid flavor. Gives energy but I’m not really sure what it’s supposed to taste like??? It hydrates u too kinda I guess doesn’t do much else.",
        "is_verified": false,
        "feedback": {
          "helpful": 0,
          "unhelpful": 0,
          "inappropriate": 0
        },
        "status": "APPROVED",
        "submitted_at": "2023-05-08T20:02:41.000+00:00",
        "modified_at": "2023-05-10T08:04:46.000+00:00",
        "photos": [],
        "tags": [],
        "reviewer_attributes": [],
        "ClientResponses": [],
        "Entities": [],
        "Tcin": "13426757",
        "Rating": 2,
        "RatingRange": 5,
        "SecondaryRatingsOrder": [],
        "SecondaryRatings": {},
        "BadgesOrder": [],
        "Badges": {},
        "SourceClient": "influenster.com",
        "SyndicationSource": {
          "id": "influenster",
          "logo": "https://contentorigin.bazaarvoice.com/influenster/default/influenster.png",
          "name": "influenster.com"
        },
        "IsRatingsOnly": false,
        "ClientResponseCount": 0
      },
      {
        "id": "a62d6906-b1eb-4db3-8e23-7f120ef41da9",
        "external_id": "5aa89a62-1070-558c-8a91-f2296bc35edc",
        "is_syndicated": true,
        "channel": "BV",
        "author": {
          "external_id": "63ea7a7c-c148-5e31-a631-383dc3552f22",
          "nickname": "eletinan"
        },
        "title": "Not my preference",
        "text": "I personally don’t love Red Bulls alone. I prefer them mixed with other flavors. Specifically at 7brew, ziggis, or hyper make good mixtures with Red Bulls. If I had to choose a brand I would prefer monsters.",
        "is_verified": false,
        "feedback": {
          "helpful": 0,
          "unhelpful": 0,
          "inappropriate": 0
        },
        "status": "APPROVED",
        "submitted_at": "2023-05-07T07:53:59.000+00:00",
        "modified_at": "2023-05-09T08:21:21.000+00:00",
        "photos": [],
        "tags": [],
        "reviewer_attributes": [],
        "ClientResponses": [],
        "Entities": [],
        "Tcin": "13426757",
        "Rating": 3,
        "RatingRange": 5,
        "SecondaryRatingsOrder": [],
        "SecondaryRatings": {},
        "BadgesOrder": [],
        "Badges": {},
        "SourceClient": "influenster.com",
        "SyndicationSource": {
          "id": "influenster",
          "logo": "https://contentorigin.bazaarvoice.com/influenster/default/influenster.png",
          "name": "influenster.com"
        },
        "IsRatingsOnly": false,
        "ClientResponseCount": 0
      },
      {
        "id": "cf562c45-a46e-4ca6-a198-19c2907d716f",
        "external_id": "dea77566-a0e1-5629-aa1d-1311f1ff10f7",
        "is_syndicated": true,
        "channel": "BV",
        "author": {
          "external_id": "826412dc-634d-5456-9beb-feadc1cf11f4",
          "nickname": "brynnd6"
        },
        "title": "Dont go a day without",
        "text": "I prefer red bull over Monster or the others any day of the week. To mee its not as sweet or sugary. Goes down smooth and never gives me the crash afterwards",
        "is_verified": false,
        "feedback": {
          "helpful": 0,
          "unhelpful": 0,
          "inappropriate": 0
        },
        "status": "APPROVED",
        "submitted_at": "2023-05-04T03:51:22.000+00:00",
        "modified_at": "2023-05-06T08:21:23.000+00:00",
        "photos": [
          "https://target.scene7.com/is/image/Target/GUEST_26506de6-2eb7-443f-a59f-00f5617d5a08"
        ],
        "tags": [],
        "reviewer_attributes": [],
        "ClientResponses": [],
        "Entities": [],
        "Tcin": "13426757",
        "Rating": 5,
        "RatingRange": 5,
        "SecondaryRatingsOrder": [],
        "SecondaryRatings": {},
        "BadgesOrder": [],
        "Badges": {},
        "SourceClient": "influenster.com",
        "SyndicationSource": {
          "id": "influenster",
          "logo": "https://contentorigin.bazaarvoice.com/influenster/default/influenster.png",
          "name": "influenster.com"
        },
        "IsRatingsOnly": false,
        "ClientResponseCount": 0
      },
      {
        "id": "59504ab1-937d-4268-ae6f-f113681b3b8b",
        "external_id": "4064d065-853f-5e29-8f6e-6bbf7e5cbb39",
        "is_syndicated": true,
        "channel": "BV",
        "author": {
          "external_id": "88e66c0c-f9b9-5f40-bed3-190620d67293"
        },
        "title": "My favorite is the original",
        "text": "I love red bull. I need it on those morning that it’s time to get up and you have to make yourself. I have been having a Red Bull everyday for a few years now.",
        "is_verified": false,
        "feedback": {
          "helpful": 0,
          "unhelpful": 0,
          "inappropriate": 0
        },
        "status": "APPROVED",
        "submitted_at": "2023-05-01T00:38:03.000+00:00",
        "modified_at": "2023-05-04T08:04:47.000+00:00",
        "photos": [],
        "tags": [],
        "reviewer_attributes": [],
        "ClientResponses": [],
        "Entities": [],
        "Tcin": "13426757",
        "Rating": 5,
        "RatingRange": 5,
        "SecondaryRatingsOrder": [],
        "SecondaryRatings": {},
        "BadgesOrder": [],
        "Badges": {},
        "SourceClient": "influenster.com",
        "SyndicationSource": {
          "id": "influenster",
          "logo": "https://contentorigin.bazaarvoice.com/influenster/default/influenster.png",
          "name": "influenster.com"
        },
        "IsRatingsOnly": false,
        "ClientResponseCount": 0
      },
      {
        "id": "a03dbba8-abeb-4cac-a65e-984969813a4e",
        "external_id": "a3a5b45e-2185-557a-a587-64d64b607fca",
        "is_syndicated": true,
        "channel": "BV",
        "author": {
          "external_id": "c3cb402a-9f19-50b9-b132-e1d748a4960d",
          "nickname": "maricamb"
        },
        "title": "Excellent flavor!!",
        "text": "When I have a lazy day and without spirits, I do not hesitate to take this product since it gives me energy and its flavor is unbeatable. Recommended",
        "is_verified": false,
        "feedback": {
          "helpful": 0,
          "unhelpful": 0,
          "inappropriate": 0
        },
        "status": "APPROVED",
        "submitted_at": "2023-04-29T03:09:37.000+00:00",
        "modified_at": "2023-05-01T08:07:26.000+00:00",
        "photos": [
          "https://target.scene7.com/is/image/Target/GUEST_791b4b96-9f16-4733-b183-aa2886cb9cb3"
        ],
        "tags": [],
        "reviewer_attributes": [],
        "ClientResponses": [],
        "Entities": [],
        "Tcin": "13426757",
        "Rating": 5,
        "RatingRange": 5,
        "SecondaryRatingsOrder": [],
        "SecondaryRatings": {},
        "BadgesOrder": [],
        "Badges": {},
        "SourceClient": "influenster.com",
        "SyndicationSource": {
          "id": "influenster",
          "logo": "https://contentorigin.bazaarvoice.com/influenster/default/influenster.png",
          "name": "influenster.com"
        },
        "IsRatingsOnly": false,
        "ClientResponseCount": 0
      },
      {
        "id": "ddb72a24-24a3-4af3-9e49-1fdc9bee4260",
        "external_id": "a2730897-77bc-5ff4-a65a-72c241006f92",
        "is_syndicated": true,
        "channel": "BV",
        "author": {
          "external_id": "1c87eb34-2f54-50bc-a895-80ba568682a8",
          "nickname": "aimeed38"
        },
        "title": "Red Bull is life",
        "text": "Red Bull is literally so delicious and anyone who doesn’t think so needs to grow up. It definitely gives you energy through out the day without a crash!",
        "is_verified": false,
        "feedback": {
          "helpful": 0,
          "unhelpful": 0,
          "inappropriate": 0
        },
        "status": "APPROVED",
        "submitted_at": "2023-04-27T21:29:32.000+00:00",
        "modified_at": "2023-04-29T08:10:27.000+00:00",
        "photos": [],
        "tags": [],
        "reviewer_attributes": [],
        "ClientResponses": [],
        "Entities": [],
        "Tcin": "13426757",
        "Rating": 5,
        "RatingRange": 5,
        "SecondaryRatingsOrder": [],
        "SecondaryRatings": {},
        "BadgesOrder": [],
        "Badges": {},
        "SourceClient": "influenster.com",
        "SyndicationSource": {
          "id": "influenster",
          "logo": "https://contentorigin.bazaarvoice.com/influenster/default/influenster.png",
          "name": "influenster.com"
        },
        "IsRatingsOnly": false,
        "ClientResponseCount": 0
      }
    ],
    "total_pages": 16,
    "first_page": false,
    "last_page": false
  },
  "reviews_with_photos": {
    "page": 1,
    "size": 8,
    "total_results": 11,
    "results": [
      {
        "id": "6479eb44-8c64-47e4-a5ce-a04ccbb69575",
        "external_id": "48e714c0-f857-500a-acca-6167f54b9417",
        "is_syndicated": true,
        "channel": "BV",
        "author": {
          "external_id": "bf6f4f3f-a031-5c06-9179-b14824f66690",
          "nickname": "nhanp1"
        },
        "title": "I love Red Bull.",
        "text": "I love Red Bull. I have drunk it since I was a kid. My mom always buy it in special occasions, especially in Lunar New Year. This is my childhood drink and I remember craving it a lot. Now I still drink it whenever I feel like low energy. It really helps me feel better and energized. Red Bull",
        "is_verified": false,
        "feedback": {
          "helpful": 0,
          "unhelpful": 0,
          "inappropriate": 0
        },
        "status": "APPROVED",
        "submitted_at": "2022-02-25T17:27:00.000+00:00",
        "modified_at": "2022-03-01T08:26:23.000+00:00",
        "photos": [
          "https://target.scene7.com/is/image/Target/GUEST_c20e51d4-8da8-4da3-a9b8-eac9e5e39865"
        ],
        "tags": [],
        "reviewer_attributes": [],
        "ClientResponses": [],
        "Entities": [],
        "Tcin": "13426757",
        "Rating": 5,
        "RatingRange": 5,
        "SecondaryRatingsOrder": [],
        "SecondaryRatings": {},
        "BadgesOrder": [],
        "Badges": {},
        "SourceClient": "influenster.com",
        "SyndicationSource": {
          "id": "influenster",
          "logo": "https://contentorigin.bazaarvoice.com/influenster/default/influenster.png",
          "name": "influenster.com"
        },
        "IsRatingsOnly": false,
        "ClientResponseCount": 0
      },
      {
        "id": "5bee411a-4a10-4d7e-a49f-603e8b13f561",
        "external_id": "dc820219-511e-5229-8e1d-5395e7be4a6e",
        "is_syndicated": true,
        "channel": "BV",
        "author": {
          "external_id": "d6262769-212c-5941-bdf5-9f88119c2299",
          "nickname": "angelac368"
        },
        "title": "Perfect for a pick",
        "text": "Perfect for a pick me up when a little extra energy is needed. I love this especially when it’s extra chilled or over ice.",
        "is_verified": false,
        "feedback": {
          "helpful": 0,
          "unhelpful": 0,
          "inappropriate": 0
        },
        "status": "APPROVED",
        "submitted_at": "2022-01-09T23:02:30.000+00:00",
        "modified_at": "2022-01-13T08:22:30.000+00:00",
        "photos": [
          "https://target.scene7.com/is/image/Target/GUEST_1f74c3e1-03cd-4d49-8e80-82f68d1fd725"
        ],
        "tags": [],
        "reviewer_attributes": [],
        "ClientResponses": [],
        "Entities": [],
        "Tcin": "13426757",
        "Rating": 5,
        "RatingRange": 5,
        "SecondaryRatingsOrder": [],
        "SecondaryRatings": {},
        "BadgesOrder": [],
        "Badges": {},
        "SourceClient": "influenster.com",
        "SyndicationSource": {
          "id": "influenster",
          "logo": "https://contentorigin.bazaarvoice.com/influenster/default/influenster.png",
          "name": "influenster.com"
        },
        "IsRatingsOnly": false,
        "ClientResponseCount": 0
      },
      {
        "id": "e9f10e4f-7309-4de1-9357-79ace0ecd841",
        "external_id": "7a4e412a-62d0-5271-ab3a-5621619c0296",
        "is_syndicated": true,
        "channel": "BV",
        "author": {
          "external_id": "ef2a4c42-cc6c-51ae-ae01-c3df55d18f21",
          "nickname": "ashleyimperfect30"
        },
        "title": "I’m a big fan",
        "text": "I’m a big fan of Red Bull energy drinks! This drink meets my expectations for increasing my energy intake. This version has a ton of sugar which I would change. I will definitely purchase the sugar free product next time.",
        "is_verified": false,
        "feedback": {
          "helpful": 0,
          "unhelpful": 0,
          "inappropriate": 0
        },
        "status": "APPROVED",
        "submitted_at": "2021-11-21T16:30:44.000+00:00",
        "modified_at": "2021-11-24T08:09:23.000+00:00",
        "photos": [
          "https://target.scene7.com/is/image/Target/GUEST_ff76252c-878d-4487-a252-2aa8120541b9"
        ],
        "tags": [],
        "reviewer_attributes": [],
        "ClientResponses": [],
        "Entities": [],
        "Tcin": "13426757",
        "Rating": 4,
        "RatingRange": 5,
        "SecondaryRatingsOrder": [],
        "SecondaryRatings": {},
        "BadgesOrder": [],
        "Badges": {},
        "SourceClient": "influenster.com",
        "SyndicationSource": {
          "id": "influenster",
          "logo": "https://contentorigin.bazaarvoice.com/influenster/default/influenster.png",
          "name": "influenster.com"
        },
        "IsRatingsOnly": false,
        "ClientResponseCount": 0
      }
    ],
    "total_pages": 2,
    "first_page": false,
    "last_page": true
  },
  "metadata": {
    "has_verified": true,
    "has_photos": true,
    "has_entities": false
  }
}